…
### Converting skills from long to wide

``` r
skills_wide <- skills_raw %>%
  pivot_wider(
    id_cols  = job_id,
    names_from = skill,
    values_from = skill_level
  )

skills_wide
```

    # A tibble: 50,000 × 12
       job_id   R     `Computer Vision` NLP   SQL   Python AWS   Azure GCP   PyTorch
       <chr>    <chr> <chr>             <chr> <chr> <chr>  <chr> <chr> <chr> <chr>  
     1 E0IFD0T… Adva… Basic             Inte… Inte… <NA>   <NA>  <NA>  <NA>  <NA>   
     2 ZMF8MDD… <NA>  <NA>              Adva… <NA>  Basic  Adva… Inte… <NA>  <NA>   
     3 CX1945N… <NA>  Basic             <NA>  <NA>  Advan… <NA>  <NA>  Basic Advanc…
     4 QJ7YHL1… Adva… <NA>              Adva… Basic <NA>   <NA>  Basic <NA>  <NA>   
     5 JIUJV6O… <NA>  <NA>              <NA>  <NA>  Inter… Inte… Basic <NA>  <NA>   
     6 9T84AZY… Inte… <NA>              Basic <NA>  <NA>   <NA>  <NA>  <NA>  <NA>   
     7 4SHNF87… <NA>  Advanced          Adva… Adva… <NA>   Inte… Basic <NA>  Interm…
     8 9TEX8FS… <NA>  Basic             Basic <NA>  <NA>   <NA>  <NA>  Inte… <NA>   
     9 ICATVAZ… <NA>  <NA>              Basic <NA>  Inter… <NA>  Adva… <NA>  Advanc…
    10 IRODXMO… <NA>  <NA>              Inte… Adva… <NA>   Adva… Adva… <NA>  <NA>   
    # ℹ 49,990 more rows
    # ℹ 2 more variables: `Scikit-learn` <chr>, TensorFlow <chr>
…
